apturl==0.5.2
asn1crypto==0.24.0
attrs==20.2.0
blinker==1.4
Brlapi==0.6.7
certifi==2018.8.24
chardet==3.0.4
click==7.1.2
click-plugins==1.1.1
cligj==0.5.0
command-not-found==0.3
cryptography==2.3
cupshelpers==1.0
defer==1.0.6
distro==1.3.0
distro-info==0.18
entrypoints==0.2.3.post3
Fiona==1.8.17
geopandas==0.8.1
httplib2==0.11.3
idna==2.6
keyring==15.1.0
keyrings.alt==3.1
language-selector==0.1
launchpadlib==1.10.6
lazr.restfulclient==0.14.0
lazr.uri==1.0.3
louis==3.6.0
macaroonbakery==1.1.4
Mako==1.0.7
MarkupSafe==1.0
munch==2.5.0
netifaces==0.10.4
numpy==1.19.2
oauthlib==2.0.6
olefile==0.46
pandas==1.1.2
pexpect==4.6.0
Pillow==5.2.0
protobuf==3.0.0
pycairo==1.16.2
pycrypto==2.6.1
pycups==1.9.73
PyGObject==3.30.1
PyJWT==1.6.4
pymacaroons==0.13.0
PyNaCl==1.2.1
pyproj==2.6.1.post1
pyRFC3339==1.1
python-apt==1.7.0
python-dateutil==2.8.1
python-debian==0.1.33
pytz==2018.5
pyxdg==0.25
PyYAML==3.12
reportlab==3.5.6
requests==2.18.4
requests-unixsocket==0.1.5
SecretStorage==2.3.1
Shapely==1.7.1
simplejson==3.15.0
six==1.11.0
system-service==0.3
systemd-python==234
ubuntu-drivers-common==0.0.0
ufw==0.35
unattended-upgrades==0.1
urllib3==1.22
usb-creator==0.3.3
virtualenv==15.1.0
wadllib==1.3.3
